%YAML 1.1
%TAG !u! tag:unity3d.com,2011:
--- !u!1045 &1
EditorBuildSettings:
  m_ObjectHideFlags: 0
  serializedVersion: 2
  m_Scenes:
  - enabled: 1
    path: Assets/Scenes/UITest.unity
    guid: 00000000000000000000000000000000
  - enabled: 1
    path: Assets/Scenes/Title.unity
    guid: aaa2b8f8cbbd05640b72204890e7beeb
  - enabled: 1
    path: Assets/Scenes/Game.unity
    guid: d4702132d3ed510418a0da5bd2034bf2
